johnny,tester,test@best.co.uk
melvin,armitage,carlforgetsalot@hotmail.co.uk
Janusz,Gosk,januszgosk@hotmail.com
Keith,Gray,kegray7@virginmedia.com
Alex,Heys,alex.heys@flowenergy.uk.com
Joe,Adams,rising.shadow@gmail.com
ron,white,ronwhite37@live.com
James,Deane,james.deane13@btinternet.com
Lesley,Allen,lesley-allen@talktalk.net
David,Brown,dave22mw@btinternet.com
john,rezek,rezekjohn@hotmail.co.uk
faisal,ahmad,ismajamil@gmail.com
michael,tahaney,btahaney@tiscali.co.uk
Vivian ,Onyemah,kechviv@yahoo.com
Vivian ,Onyemah,kechviv@yahoo.com
Zafar,Hameed,Zafarbutt007@yahoo.com
Kevin,Patel,Nikitpatel@msn.com
sirajul,haque,sirajulhaque28@yahoo.co.uk
sirajul,haque,sirajulhaque28@yahoo.co.uk
Alan,Jeffery,alandj@tiscali.co.uk
john,rezek,rezekjohn@hotmail.co.uk
Ronald,Schauder,ronald.schauder@thegrove.co.uk
peter,wilkins,petermack44@hotmail.co.uk
D,Gupta,sainaiL99@hotmail.com
chris,chambers,chrisgchambers@talktalk.net
Reg,Clifton,reg@regclifton.plus.com
Tracy,Wright,tracywright12s@aol.com
Edward,Thoburn,e.thoburn@ntlworld.com
stuart,carvell,stuartcarvell272@btinternet.com
Peter ,Smith,Roderick.smith2@btinternet.com
Peter ,Smith,Roderick.smith2@btinternet.com
James Steven,Aspinall,Steve.aspinall2@sky.com
Norman,Holmes,normanholmes@talktalk.net
Lisa,McCloskey,ecljlm04@gmail.com
Alex,Ricciardi ,a.lex13@ntlworld.com
Joan,Stafford,joanstafford4@gmail.com
Frank,Woodhead,frank_woodhead@sky.com
Sam,Griffiths,finance@samgriffiths.co.uk
Michael,Hubbard,pennyfarthingstore@hotmail.com
BHABANI,SAMANTARAY,sankariter@gmail.com
Laura,Chapman,l.chapman@atlantisproperty.co.uk
harry,atkinson,harry@atkinson17.plus.com
Alan,Smith,wbayalan@hotmail.co.uk
dave,coates,dave@dscoates.demon.co.uk
Lorant,Bihari,bilori@freemail.hu
jeanina,giuliucci,jgiuliucc30@hotmail.com
Maurice,Haigh ,Mauricehaigh74@gmail.com
Jon,Noon,Johnny.noon@btinternet.com
John,Evans,cajon12uk@yahoo.co.uk
Tony,Marsh,flowenergy@lkpo.net
maria,kernott,mariakernott@rocketmail.com
Eveline,Adams,evelinemaryadams@googlemail.com
martin,hulse,martin.hulse@ccssltd.co.uk
Ian,Anderson,iandda@live.co.uk
MIKE,BONTEJ,mike.bontej@gmail.com
MIKE,BONTEJ,mike.bontej@gmail.com
MIKE,BONTEJ,mike.bontej@gmail.com
Simon,Dubbin,s.dubbs69@googlemail.com
Mark,Cooper,markrcooper1@tiscali.co.uk
Mark,Cooper,markrcooper1@tiscali.co.uk
Mark,Cooper,markrcooper1@tiscali.co.uk
Nicholas ,Olsen,jonickolsen@btinternet.com
Maria,Ward,maria.ward@flowenergy.uk.com
Maria,Ward,maria.ward@flowenergy.uk.com
maria,ward,maria.ward@flowenergy.uk.com
Barry,Smith,smithbm@blueyonder.co.uk
Ronnie,Forrest,maxim.rjf@gmail.com
matthew,downing,matdowning@hotmail.com
herish,sidik,herishsadik@yahoo.co.uk
herish,sidik,herishsadik@yahoo.co.uk
pete,nowakiwskyj,pnowakiwskyj@aol.com
pete,nowakiwskyj,pnowakiwskyj@aol.com
jack,darvill,darvillj@yahoo.co.uk
jack,darvill,darvillj@yahoo.co.uk
tony ,whitmore,whitmoret@willis.com
David,Cox,Coxyboys@aol.com
Jill,Perkins,info@jollybrewer.com
Geoff,Meigh,g.meigh@sky.com
Robert,Hanley,rphanley@tiscali.co.uk
Farhia,Ali,dubays2001@gmail.com
mike,tossell,miketossell@blueyonder.co.uk
Paul,Cluett,prcluett@hotmail.com
maria,giraudo,ginevra592@yahoo.co.uk
Amal,Haji,life_city@hotmail.com
Abul,Kalam,habibas@sky.com
Asif,Malik,asif_r_malik@hotmail.com
Cheryl,Edge,peter.cheryl@ntlworld.com
Mark,Fisher,Mark.fisher59@talktalk.net
harun ,saleh,harun469@hotmail.com
harun ,saleh,harun469@hotmail.com
michael,o'hagan,mikeohagan@onwight.net
BARRY,WHITE,barry_white1934@yahoo.co.uk
Wayne ,Jones,waynehjones31@gmail.com
Stephen,Wright,sawright92@btinternet.com
Susan,Valiantis,sueanna27@yahoo.co.uk
Nicola,Leivers,nicola@betterenergy.org.uk
Azhar,Tarmahomed,aztheman1@hotmail.com
lee,smith,lds.79@hotmail.co.uk
dilshad,mustafa,dilshad-95@hotmail.co.uk
Derek,Appleby,derekappleby@hotmail.com
david,beadle,david.beadle1@btinternet.com
alvey,street,alvey@talktalk.net
Joseph,Sherwood-Taylor,joe@stur.co.uk
ALAN,COOKE,alanecooke@live.co.uk
brian,taylor,briantaylor12@sky.com
christine,brooks,brooks.family@ntlworld.com
Emma,Thrower,emmathrower100@hotmail.co.uk
Pat,Hopwood,Ph118446@sky.com
Claire,Saunders,Claireandtony2@sky.com
Malcolm,Dee,mgdee@theiet.org
Ashleigh,Gay,ashleigh.gay@zen.co.uk
Lynn,Holt,lynn.holt@btinternet.com
A,McCadden,flow2014@chelmer.com
john,martin,johnmartin123@btconnect.com
Terrence  ,Chiddle,jo.chiddle@googlemail.com
Mark,Phillips,marknsue.phillips@btinternet.com
Henry,Carragher,henry.carragher@sky.com
Krzysztof,Osiak,ko33@interia.pl
Jessica,Martin,Jessie_martin@msn.com
Anthony,Curtis,tc-123@tiscali.co.uk
alexander ,pirie,a.pirie265@btinternet.com
patrick,whelan,pdwhel@aol.com
Paul,Syms,psu.ds@blueyonder.co.uk
julie,christian,j.n.christian@bham.ac.uk
James,Blakey,james.blakey@live.co.uk
r,w,r.webb.666@gmail.com
Simon,Kays,simonkays@virginmedia.com
LINDA,KELLY,Linda.Kelly@blueyonder.co.uk
Paul,Holt,paulholt@paulholt.karoo.co.uk
Eunice,Rigas,nicerigas@gmail.com
Eunice,Rigas,nicerigas@gmail.com
FOWZIYA,ISMAN,hantariia@gmail.com
david,donovan,2014fury@gmail.com
david,donovan,2014fury@gmail.com
david,donovan,2014fury@gmail.com
David,Hillery,dave.a.hillery@gmail.com
Glyn,Jones,jeanglyn119@sky.com
New York,Vyyizemy,dosbztfp@usunfyff.com
Lervsudd,Lervsudd,cjkskdwa@aqccaxae.com
Marie,Frazer,mariet.frazer@gmail.com
Michael,Harfield,mmharfield@talktalk.net
Paul,Cluett,prcluett@hotmail.com
Praful,Tank,praful.tank@hotmail.co.uk
Praful,Tank,praful.tank@hotmail.co.uk
Praful,Tank,praful.tank@hotmail.co.uk
Praful,Tank,praful.tank@hotmail.co.uk
New York,Netdnhsq,jntdamcx@wypigceq.com
john,walker,penrithwalker@gmail.com
john,walker,penrithwalker@gmail.com
Pauline,Williamson,pat.williamson789@hotmail.co.uk
New York,jropritv,ifdngc@scqihb.com
Peter,Dwyer,petedwyer00@gmail.com
C,Gohil,Ckgohil@btinternet.com
edward,weaver,edweaver@hotmail.co.uk
Luis,Henriques,hunriqu@aol.com
New York,abokdkcjr,hrqend@xiakiq.com
MICHAEL,Harfield,mmharfield@talktalk.net
Geoff,Kelley,geoffkelley@yahoo.com
Shan,Jin,jinshan2003@hotmail.com
Syed,Ali,Yakub121@yahoo.com
Rowan,Taylor,dangerous_dave92@hotmail.com
sim,fi,gmail@interia.pl
sim,fi,szyfil@interia.pl
enver,gursev,voodookebab@gmail.com
test,test,test@test.com,ip2 2ea
Sean,Scannell,sean@whitespaceagency.com,Test Email
ALex,Heys,alex.heys@flowenergy.uk.com,IP4 4LQ
